999
dxfrw 0.6.3
  0
SECTION
  2
HEADER
  9
$ACADVER
  1
AC1021
  9
$DWGCODEPAGE
  3
ANSI_1252
  9
$INSBASE
 10
0
 20
0
 30
0
  9
$EXTMIN
 10
-25.70499900954781
 20
-22.42620372769416
 30
0
  9
$EXTMAX
 10
41.1139485582831
 20
90.00008482468039
 30
0
  9
$LIMMIN
 10
0
 20
0
  9
$LIMMAX
 10
420
 20
297
  9
$ORTHOMODE
 70
    0
  9
$REGENMODE
 70
    1
  9
$FILLMODE
 70
    1
  9
$QTEXTMODE
 70
    0
  9
$MIRRTEXT
 70
    0
  9
$LTSCALE
 40
1
  9
$ATTMODE
 70
    0
  9
$TEXTSIZE
 40
2.5
  9
$TRACEWID
 40
15.68
  9
$TEXTSTYLE
  7
STANDARD
  9
$CLAYER
  8
dimensions
  9
$CELTYPE
  6
BYLAYER
  9
$CECOLOR
 62
  256
  9
$CELTSCALE
 40
1
  9
$DISPSILH
 70
    0
  9
$DIMSCALE
 40
1
  9
$DIMASZ
 40
2.5
  9
$DIMEXO
 40
0.625
  9
$DIMDLI
 40
3.75
  9
$DIMRND
 40
0
  9
$DIMDLE
 40
0
  9
$DIMEXE
 40
1.25
  9
$DIMTP
 40
0
  9
$DIMTM
 40
0
  9
$DIMTXT
 40
2.5
  9
$DIMCEN
 40
2.5
  9
$DIMTSZ
 40
0
  9
$DIMTOL
 70
    0
  9
$DIMLIM
 70
    0
  9
$DIMTIH
 70
    0
  9
$DIMTOH
 70
    0
  9
$DIMSE1
 70
    0
  9
$DIMSE2
 70
    0
  9
$DIMTAD
 70
    1
  9
$DIMZIN
 70
    8
  9
$DIMBLK
  1

  9
$DIMASO
 70
    1
  9
$DIMSHO
 70
    1
  9
$DIMPOST
  1

  9
$DIMAPOST
  1

  9
$DIMALT
 70
    0
  9
$DIMALTD
 70
    3
  9
$DIMALTF
 40
0.03937
  9
$DIMLFAC
 40
1
  9
$DIMTOFL
 70
    1
  9
$DIMTVP
 40
0
  9
$DIMTIX
 70
    0
  9
$DIMSOXD
 70
    0
  9
$DIMSAH
 70
    0
  9
$DIMBLK1
  1

  9
$DIMBLK2
  1

  9
$DIMSTYLE
  2
STANDARD
  9
$DIMCLRD
 70
    0
  9
$DIMCLRE
 70
    0
  9
$DIMCLRT
 70
    0
  9
$DIMTFAC
 40
1
  9
$DIMGAP
 40
0.625
  9
$DIMJUST
 70
    0
  9
$DIMSD1
 70
    0
  9
$DIMSD2
 70
    0
  9
$DIMTOLJ
 70
    0
  9
$DIMTZIN
 70
    8
  9
$DIMALTZ
 70
    0
  9
$DIMALTTZ
 70
    0
  9
$DIMUPT
 70
    0
  9
$DIMDEC
 70
    2
  9
$DIMTDEC
 70
    2
  9
$DIMALTU
 70
    2
  9
$DIMALTTD
 70
    3
  9
$DIMTXSTY
  7
STANDARD
  9
$DIMAUNIT
 70
    0
  9
$DIMADEC
 70
    0
  9
$DIMALTRND
 40
0
  9
$DIMAZIN
 70
    0
  9
$DIMDSEP
 70
   44
  9
$DIMATFIT
 70
    3
  9
$DIMFRAC
 70
    0
  9
$DIMLDRBLK
  1
STANDARD
  9
$DIMLUNIT
 70
    2
  9
$DIMLWD
 70
   -2
  9
$DIMLWE
 70
   -2
  9
$DIMTMOVE
 70
    0
  9
$DIMFXL
 40
1
  9
$DIMFXLON
 70
    0
  9
$DIMJOGANG
 40
0.7854
  9
$DIMTFILL
 70
    0
  9
$DIMTFILLCLR
 70
    0
  9
$DIMARCSYM
 70
    0
  9
$DIMLTYPE
  6

  9
$DIMLTEX1
  6

  9
$DIMLTEX2
  6

  9
$LUNITS
 70
    2
  9
$LUPREC
 70
    4
  9
$SKETCHINC
 40
1
  9
$FILLETRAD
 40
0
  9
$AUNITS
 70
    0
  9
$AUPREC
 70
    2
  9
$MENU
  1
.
  9
$ELEVATION
 40
0
  9
$PELEVATION
 40
0
  9
$THICKNESS
 40
0
  9
$LIMCHECK
 70
    0
  9
$CHAMFERA
 40
0
  9
$CHAMFERB
 40
0
  9
$CHAMFERC
 40
0
  9
$CHAMFERD
 40
0
  9
$SKPOLY
 70
    0
  9
$USRTIMER
 70
    1
  9
$ANGBASE
 50
0
  9
$ANGDIR
 70
    0
  9
$PDMODE
 70
   34
  9
$PDSIZE
 40
0
  9
$PLINEWID
 40
0
  9
$SPLFRAME
 70
    0
  9
$SPLINETYPE
 70
    2
  9
$SPLINESEGS
 70
    8
  9
$HANDSEED
  5
20000
  9
$SURFTAB1
 70
    6
  9
$SURFTAB2
 70
    6
  9
$SURFTYPE
 70
    6
  9
$SURFU
 70
    6
  9
$SURFV
 70
    6
  9
$UCSBASE
  2

  9
$UCSNAME
  2

  9
$UCSORG
 10
0
 20
0
 30
0
  9
$UCSXDIR
 10
1
 20
0
 30
0
  9
$UCSYDIR
 10
0
 20
1
 30
0
  9
$UCSORTHOREF
  2

  9
$UCSORTHOVIEW
 70
    0
  9
$UCSORGTOP
 10
0
 20
0
 30
0
  9
$UCSORGBOTTOM
 10
0
 20
0
 30
0
  9
$UCSORGLEFT
 10
0
 20
0
 30
0
  9
$UCSORGRIGHT
 10
0
 20
0
 30
0
  9
$UCSORGFRONT
 10
0
 20
0
 30
0
  9
$UCSORGBACK
 10
0
 20
0
 30
0
  9
$PUCSBASE
  2

  9
$PUCSNAME
  2

  9
$PUCSORG
 10
0
 20
0
 30
0
  9
$PUCSXDIR
 10
1
 20
0
 30
0
  9
$PUCSYDIR
 10
0
 20
1
 30
0
  9
$PUCSORTHOREF
  2

  9
$PUCSORTHOVIEW
 70
    0
  9
$PUCSORGTOP
 10
0
 20
0
 30
0
  9
$PUCSORGBOTTOM
 10
0
 20
0
 30
0
  9
$PUCSORGLEFT
 10
0
 20
0
 30
0
  9
$PUCSORGRIGHT
 10
0
 20
0
 30
0
  9
$PUCSORGFRONT
 10
0
 20
0
 30
0
  9
$PUCSORGBACK
 10
0
 20
0
 30
0
  9
$USERI1
 70
    0
  9
$USERI2
 70
    0
  9
$USERI3
 70
    0
  9
$USERI4
 70
    0
  9
$USERI5
 70
    0
  9
$USERR1
 40
0
  9
$USERR2
 40
0
  9
$USERR3
 40
0
  9
$USERR4
 40
0
  9
$USERR5
 40
0
  9
$WORLDVIEW
 70
    1
  9
$SHADEDGE
 70
    3
  9
$SHADEDIF
 70
   70
  9
$TILEMODE
 70
    1
  9
$MAXACTVP
 70
   64
  9
$PINSBASE
 10
0
 20
0
 30
0
  9
$PLIMCHECK
 70
    0
  9
$PEXTMIN
 10
0
 20
0
 30
0
  9
$PEXTMAX
 10
0
 20
0
 30
0
  9
$GRIDMODE
 70
    1
  9
$SNAPSTYLE
 70
    0
  9
$PLIMMIN
 10
0
 20
0
  9
$PLIMMAX
 10
297
 20
210
  9
$UNITMODE
 70
    0
  9
$VISRETAIN
 70
    1
  9
$PLINEGEN
 70
    0
  9
$PSLTSCALE
 70
    1
  9
$TREEDEPTH
 70
 3020
  9
$CMLSTYLE
  2
Standard
  9
$CMLJUST
 70
    0
  9
$CMLSCALE
 40
20
  9
$PROXYGRAPHICS
 70
    1
  9
$MEASUREMENT
 70
    1
  9
$CELWEIGHT
370
   -1
  9
$ENDCAPS
280
    0
  9
$JOINSTYLE
280
    0
  9
$LWDISPLAY
290
    0
  9
$INSUNITS
 70
    4
  9
$HYPERLINKBASE
  1

  9
$STYLESHEET
  1

  9
$XEDIT
290
    1
  9
$CEPSNTYPE
380
    0
  9
$PSTYLEMODE
290
    1
  9
$EXTNAMES
290
    1
  9
$PSVPSCALE
 40
1
  9
$OLESTARTUP
290
    0
  9
$SORTENTS
280
  127
  9
$INDEXCTL
280
    0
  9
$HIDETEXT
280
    1
  9
$XCLIPFRAME
290
    0
  9
$HALOGAP
280
    0
  9
$OBSCOLOR
 70
  257
  9
$OBSLTYPE
280
    0
  9
$INTERSECTIONDISPLAY
280
    0
  9
$INTERSECTIONCOLOR
 70
  257
  9
$DIMASSOC
280
    1
  9
$PROJECTNAME
  1

  9
$CAMERADISPLAY
290
    0
  9
$LENSLENGTH
 40
50
  9
$CAMERAHEIGHT
 40
0
  9
$STEPSPERSEC
 40
2
  9
$STEPSIZE
 40
50
  9
$3DDWFPREC
 40
2
  9
$PSOLWIDTH
 40
5
  9
$PSOLHEIGHT
 40
80
  9
$LOFTANG1
 40
1.570796326794897
  9
$LOFTANG2
 40
1.570796326794897
  9
$LOFTMAG1
 40
0
  9
$LOFTMAG2
 40
0
  9
$LOFTPARAM
 70
    7
  9
$LOFTNORMALS
280
    1
  9
$LATITUDE
 40
1
  9
$LONGITUDE
 40
1
  9
$NORTHDIRECTION
 40
0
  9
$TIMEZONE
 70
-8000
  9
$LIGHTGLYPHDISPLAY
280
    1
  9
$TILEMODELIGHTSYNCH
280
    1
  9
$SOLIDHIST
280
    1
  9
$SHOWHIST
280
    1
  9
$DWFFRAME
280
    2
  9
$DGNFRAME
280
    0
  9
$REALWORLDSCALE
290
    1
  9
$INTERFERECOLOR
 62
    1
  9
$CSHADOW
280
    0
  9
$SHADOWPLANELOCATION
 40
0
  0
ENDSEC
  0
SECTION
  2
CLASSES
  0
ENDSEC
  0
SECTION
  2
TABLES
  0
TABLE
  2
VPORT
  5
8
330
0
100
AcDbSymbolTable
 70
    1
  0
VPORT
  5
31
330
2
100
AcDbSymbolTableRecord
100
AcDbViewportTableRecord
  2
*ACTIVE
 70
    0
 10
0
 20
0
 11
1
 21
1
 12
66.07689663692868
 22
52.47032847488416
 13
0
 23
0
 14
10
 24
10
 15
10
 25
10
 16
0
 26
0
 36
1
 17
0
 27
0
 37
0
 40
144.9099509257741
 41
1.735915492957746
 42
50
 43
0
 44
0
 50
0
 51
0
 71
    0
 72
  100
 73
    1
 74
    3
 75
    0
 76
    1
 77
    0
 78
    0
281
    0
 65
    1
110
0
120
0
130
0
111
1
121
0
131
0
112
0
122
1
132
0
 79
    0
146
0
348
10020
 60
    7
 61
    5
292
1
282
    1
141
0
142
0
 63
  250
421
3358443
  0
ENDTAB
  0
TABLE
  2
LTYPE
  5
5
330
0
100
AcDbSymbolTable
 70
    4
  0
LTYPE
  5
14
330
5
100
AcDbSymbolTableRecord
100
AcDbLinetypeTableRecord
  2
ByBlock
 70
    0
  3

 72
   65
 73
    0
 40
0
  0
LTYPE
  5
15
330
5
100
AcDbSymbolTableRecord
100
AcDbLinetypeTableRecord
  2
ByLayer
 70
    0
  3

 72
   65
 73
    0
 40
0
  0
LTYPE
  5
16
330
5
100
AcDbSymbolTableRecord
100
AcDbLinetypeTableRecord
  2
Continuous
 70
    0
  3
Solid line
 72
   65
 73
    0
 40
0
  0
LTYPE
  5
32
330
5
100
AcDbSymbolTableRecord
100
AcDbLinetypeTableRecord
  2
DOT
 70
    0
  3
Dot . . . . . . . . . . . . . . . . . . . . . .
 72
   65
 73
    2
 40
6.35
 49
0
 74
    0
 49
-6.35
 74
    0
  0
LTYPE
  5
33
330
5
100
AcDbSymbolTableRecord
100
AcDbLinetypeTableRecord
  2
DOTTINY
 70
    0
  3
Dot (.15x) .....................................
 72
   65
 73
    2
 40
0.9525
 49
0
 74
    0
 49
-0.9525
 74
    0
  0
LTYPE
  5
34
330
5
100
AcDbSymbolTableRecord
100
AcDbLinetypeTableRecord
  2
DOT2
 70
    0
  3
Dot (.5x) .....................................
 72
   65
 73
    2
 40
3.175
 49
0
 74
    0
 49
-3.175
 74
    0
  0
LTYPE
  5
35
330
5
100
AcDbSymbolTableRecord
100
AcDbLinetypeTableRecord
  2
DOTX2
 70
    0
  3
Dot (2x) .  .  .  .  .  .  .  .  .  .  .  .  .
 72
   65
 73
    2
 40
12.7
 49
0
 74
    0
 49
-12.7
 74
    0
  0
LTYPE
  5
36
330
5
100
AcDbSymbolTableRecord
100
AcDbLinetypeTableRecord
  2
DASHED
 70
    0
  3
Dashed _ _ _ _ _ _ _ _ _ _ _ _ _ _ _ _ _
 72
   65
 73
    2
 40
19.05
 49
12.7
 74
    0
 49
-6.35
 74
    0
  0
LTYPE
  5
37
330
5
100
AcDbSymbolTableRecord
100
AcDbLinetypeTableRecord
  2
DASHEDTINY
 70
    0
  3
Dashed (.15x) _ _ _ _ _ _ _ _ _ _ _ _ _ _ _ _ _
 72
   65
 73
    2
 40
2.8575
 49
1.905
 74
    0
 49
-0.9525
 74
    0
  0
LTYPE
  5
38
330
5
100
AcDbSymbolTableRecord
100
AcDbLinetypeTableRecord
  2
DASHED2
 70
    0
  3
Dashed (.5x) _ _ _ _ _ _ _ _ _ _ _ _ _ _ _ _ _
 72
   65
 73
    2
 40
9.524999999999999
 49
6.35
 74
    0
 49
-3.175
 74
    0
  0
LTYPE
  5
39
330
5
100
AcDbSymbolTableRecord
100
AcDbLinetypeTableRecord
  2
DASHEDX2
 70
    0
  3
Dashed (2x) ____  ____  ____  ____  ____  ___
 72
   65
 73
    2
 40
38.09999999999999
 49
25.4
 74
    0
 49
-12.7
 74
    0
  0
LTYPE
  5
3A
330
5
100
AcDbSymbolTableRecord
100
AcDbLinetypeTableRecord
  2
DASHDOT
 70
    0
  3
Dash dot __ . __ . __ . __ . __ . __ . __ . __
 72
   65
 73
    4
 40
25.4
 49
12.7
 74
    0
 49
-6.35
 74
    0
 49
0
 74
    0
 49
-6.35
 74
    0
  0
LTYPE
  5
3B
330
5
100
AcDbSymbolTableRecord
100
AcDbLinetypeTableRecord
  2
DASHDOTTINY
 70
    0
  3
Dash dot (.15x) _._._._._._._._._._._._._._._.
 72
   65
 73
    4
 40
3.81
 49
1.905
 74
    0
 49
-0.9525
 74
    0
 49
0
 74
    0
 49
-0.9525
 74
    0
  0
LTYPE
  5
3C
330
5
100
AcDbSymbolTableRecord
100
AcDbLinetypeTableRecord
  2
DASHDOT2
 70
    0
  3
Dash dot (.5x) _._._._._._._._._._._._._._._.
 72
   65
 73
    4
 40
12.7
 49
6.35
 74
    0
 49
-3.175
 74
    0
 49
0
 74
    0
 49
-3.175
 74
    0
  0
LTYPE
  5
3D
330
5
100
AcDbSymbolTableRecord
100
AcDbLinetypeTableRecord
  2
DASHDOTX2
 70
    0
  3
Dash dot (2x) ____  .  ____  .  ____  .  ___
 72
   65
 73
    4
 40
50.8
 49
25.4
 74
    0
 49
-12.7
 74
    0
 49
0
 74
    0
 49
-12.7
 74
    0
  0
LTYPE
  5
3E
330
5
100
AcDbSymbolTableRecord
100
AcDbLinetypeTableRecord
  2
DIVIDE
 70
    0
  3
Divide ____ . . ____ . . ____ . . ____ . . ____
 72
   65
 73
    6
 40
31.75
 49
12.7
 74
    0
 49
-6.35
 74
    0
 49
0
 74
    0
 49
-6.35
 74
    0
 49
0
 74
    0
 49
-6.35
 74
    0
  0
LTYPE
  5
3F
330
5
100
AcDbSymbolTableRecord
100
AcDbLinetypeTableRecord
  2
DIVIDETINY
 70
    0
  3
Divide (.15x) __..__..__..__..__..__..__..__.._
 72
   65
 73
    6
 40
4.7625
 49
1.905
 74
    0
 49
-0.9525
 74
    0
 49
0
 74
    0
 49
-0.9525
 74
    0
 49
0
 74
    0
 49
-0.9525
 74
    0
  0
LTYPE
  5
40
330
5
100
AcDbSymbolTableRecord
100
AcDbLinetypeTableRecord
  2
DIVIDE2
 70
    0
  3
Divide (.5x) __..__..__..__..__..__..__..__.._
 72
   65
 73
    6
 40
15.875
 49
6.35
 74
    0
 49
-3.175
 74
    0
 49
0
 74
    0
 49
-3.175
 74
    0
 49
0
 74
    0
 49
-3.175
 74
    0
  0
LTYPE
  5
41
330
5
100
AcDbSymbolTableRecord
100
AcDbLinetypeTableRecord
  2
DIVIDEX2
 70
    0
  3
Divide (2x) ________  .  .  ________  .  .  _
 72
   65
 73
    6
 40
63.5
 49
25.4
 74
    0
 49
-12.7
 74
    0
 49
0
 74
    0
 49
-12.7
 74
    0
 49
0
 74
    0
 49
-12.7
 74
    0
  0
LTYPE
  5
42
330
5
100
AcDbSymbolTableRecord
100
AcDbLinetypeTableRecord
  2
BORDER
 70
    0
  3
Border __ __ . __ __ . __ __ . __ __ . __ __ .
 72
   65
 73
    6
 40
44.45
 49
12.7
 74
    0
 49
-6.35
 74
    0
 49
12.7
 74
    0
 49
-6.35
 74
    0
 49
0
 74
    0
 49
-6.35
 74
    0
  0
LTYPE
  5
43
330
5
100
AcDbSymbolTableRecord
100
AcDbLinetypeTableRecord
  2
BORDERTINY
 70
    0
  3
Border (.15x) __.__.__.__.__.__.__.__.__.__.__.
 72
   65
 73
    6
 40
6.6675
 49
1.905
 74
    0
 49
-0.9525
 74
    0
 49
1.905
 74
    0
 49
-0.9525
 74
    0
 49
0
 74
    0
 49
-0.9525
 74
    0
  0
LTYPE
  5
44
330
5
100
AcDbSymbolTableRecord
100
AcDbLinetypeTableRecord
  2
BORDER2
 70
    0
  3
Border (.5x) __.__.__.__.__.__.__.__.__.__.__.
 72
   65
 73
    6
 40
22.225
 49
6.35
 74
    0
 49
-3.175
 74
    0
 49
6.35
 74
    0
 49
-3.175
 74
    0
 49
0
 74
    0
 49
-3.175
 74
    0
  0
LTYPE
  5
45
330
5
100
AcDbSymbolTableRecord
100
AcDbLinetypeTableRecord
  2
BORDERX2
 70
    0
  3
Border (2x) ____  ____  .  ____  ____  .  ___
 72
   65
 73
    6
 40
88.89999999999999
 49
25.4
 74
    0
 49
-12.7
 74
    0
 49
25.4
 74
    0
 49
-12.7
 74
    0
 49
0
 74
    0
 49
-12.7
 74
    0
  0
LTYPE
  5
46
330
5
100
AcDbSymbolTableRecord
100
AcDbLinetypeTableRecord
  2
CENTER
 70
    0
  3
Center ____ _ ____ _ ____ _ ____ _ ____ _ ____
 72
   65
 73
    4
 40
50.8
 49
31.75
 74
    0
 49
-6.35
 74
    0
 49
6.35
 74
    0
 49
-6.35
 74
    0
  0
LTYPE
  5
47
330
5
100
AcDbSymbolTableRecord
100
AcDbLinetypeTableRecord
  2
CENTERTINY
 70
    0
  3
Center (.15x) ___ _ ___ _ ___ _ ___ _ ___ _ ___
 72
   65
 73
    4
 40
7.619999999999999
 49
4.7625
 74
    0
 49
-0.9525
 74
    0
 49
0.9525
 74
    0
 49
-0.9525
 74
    0
  0
LTYPE
  5
48
330
5
100
AcDbSymbolTableRecord
100
AcDbLinetypeTableRecord
  2
CENTER2
 70
    0
  3
Center (.5x) ___ _ ___ _ ___ _ ___ _ ___ _ ___
 72
   65
 73
    4
 40
28.575
 49
19.05
 74
    0
 49
-3.175
 74
    0
 49
3.175
 74
    0
 49
-3.175
 74
    0
  0
LTYPE
  5
49
330
5
100
AcDbSymbolTableRecord
100
AcDbLinetypeTableRecord
  2
CENTERX2
 70
    0
  3
Center (2x) ________  __  ________  __  _____
 72
   65
 73
    4
 40
101.6
 49
63.5
 74
    0
 49
-12.7
 74
    0
 49
12.7
 74
    0
 49
-12.7
 74
    0
  0
ENDTAB
  0
TABLE
  2
LAYER
  5
2
330
0
100
AcDbSymbolTable
 70
    1
  0
LAYER
  5
10
330
2
100
AcDbSymbolTableRecord
100
AcDbLayerTableRecord
  2
0
 70
    0
 62
    7
  6
CONTINUOUS
370
    0
390
F
  0
LAYER
  5
4A
330
2
100
AcDbSymbolTableRecord
100
AcDbLayerTableRecord
  2
Guides
 70
    1
 62
    3
  6
CONTINUOUS
370
    0
390
F
1001
LibreCad
1070
    1
  0
LAYER
  5
4B
330
2
100
AcDbSymbolTableRecord
100
AcDbLayerTableRecord
  2
More Guides
 70
    1
 62
    2
  6
CONTINUOUS
370
    0
390
F
1001
LibreCad
1070
    1
  0
LAYER
  5
4C
330
2
100
AcDbSymbolTableRecord
100
AcDbLayerTableRecord
  2
Still More Guides
 70
    1
 62
    6
  6
CONTINUOUS
370
    0
390
F
1001
LibreCad
1070
    1
  0
LAYER
  5
4D
330
2
100
AcDbSymbolTableRecord
100
AcDbLayerTableRecord
  2
TopGuides
 70
    1
 62
    3
  6
CONTINUOUS
370
    0
390
F
1001
LibreCad
1070
    1
  0
LAYER
  5
4E
330
2
100
AcDbSymbolTableRecord
100
AcDbLayerTableRecord
  2
dimensions
 70
    0
 62
    1
  6
CONTINUOUS
370
    0
390
F
  0
LAYER
  5
4F
330
2
100
AcDbSymbolTableRecord
100
AcDbLayerTableRecord
  2
socket E14
 70
    1
 62
    4
  6
CONTINUOUS
370
    0
390
F
  0
LAYER
  5
50
330
2
100
AcDbSymbolTableRecord
100
AcDbLayerTableRecord
  2
socket E27
 70
    1
 62
    6
  6
CONTINUOUS
370
    0
390
F
  0
LAYER
  5
51
330
2
100
AcDbSymbolTableRecord
100
AcDbLayerTableRecord
  2
socket E27a
 70
    0
 62
    5
  6
CONTINUOUS
370
    0
390
F
  0
LAYER
  5
52
330
2
100
AcDbSymbolTableRecord
100
AcDbLayerTableRecord
  2
socket guides
 70
    1
 62
    3
  6
CONTINUOUS
370
    0
390
F
1001
LibreCad
1070
    1
  0
LAYER
  5
53
330
2
100
AcDbSymbolTableRecord
100
AcDbLayerTableRecord
  2
temp
 70
    1
 62
    6
  6
CONTINUOUS
370
    0
390
F
  0
ENDTAB
  0
TABLE
  2
STYLE
  5
3
330
0
100
AcDbSymbolTable
 70
    3
  0
STYLE
  5
54
330
2
100
AcDbSymbolTableRecord
100
AcDbTextStyleTableRecord
  2
Standard
 70
    0
 40
0
 41
1
 50
0
 71
    0
 42
1
  3
txt
  4

  0
ENDTAB
  0
TABLE
  2
VIEW
  5
6
330
0
100
AcDbSymbolTable
 70
    0
  0
ENDTAB
  0
TABLE
  2
UCS
  5
7
330
0
100
AcDbSymbolTable
 70
    0
  0
ENDTAB
  0
TABLE
  2
APPID
  5
9
330
0
100
AcDbSymbolTable
 70
    1
  0
APPID
  5
12
330
9
100
AcDbSymbolTableRecord
100
AcDbRegAppTableRecord
  2
ACAD
 70
    0
  0
APPID
  5
55
330
9
100
AcDbSymbolTableRecord
100
AcDbRegAppTableRecord
  2
LibreCad
 70
    0
  0
ENDTAB
  0
TABLE
  2
DIMSTYLE
  5
A
330
0
100
AcDbSymbolTable
 70
    1
100
AcDbDimStyleTable
 71
    1
  0
DIMSTYLE
105
56
330
A
100
AcDbSymbolTableRecord
100
AcDbDimStyleTableRecord
  2
Standard
 70
    0
 40
1
 41
2.5
 42
0.625
 43
0.38
 44
1.25
 45
0
 46
0
 47
0
 48
0
 49
1
140
2.5
141
0.09
142
0
143
25.4
144
1
145
0
146
1
147
0.625
148
0
 71
    0
 72
    0
 73
    0
 74
    1
 75
    0
 76
    0
 77
    0
 78
    8
 79
    0
170
    0
171
    2
172
    0
173
    0
174
    0
175
    0
176
    0
177
    0
178
    0
179
    0
271
    2
272
    4
273
    2
274
    2
275
    0
276
    0
277
    2
278
   44
279
    0
280
    0
281
    0
282
    0
283
    1
284
    0
285
    0
286
    0
288
    0
289
    3
340
STANDARD
341

371
   -2
372
   -2
  0
ENDTAB
  0
TABLE
  2
BLOCK_RECORD
  5
1
330
0
100
AcDbSymbolTable
 70
    2
  0
BLOCK_RECORD
  5
1F
330
1
100
AcDbSymbolTableRecord
100
AcDbBlockTableRecord
  2
*Model_Space
 70
    0
280
    1
281
    0
  0
BLOCK_RECORD
  5
1E
330
1
100
AcDbSymbolTableRecord
100
AcDbBlockTableRecord
  2
*Paper_Space
 70
    0
280
    1
281
    0
  0
BLOCK_RECORD
  5
57
330
1
100
AcDbSymbolTableRecord
100
AcDbBlockTableRecord
  2
*D6
 70
    0
280
    1
281
    0
  0
BLOCK_RECORD
  5
5A
330
1
100
AcDbSymbolTableRecord
100
AcDbBlockTableRecord
  2
*D8
 70
    0
280
    1
281
    0
  0
BLOCK_RECORD
  5
5D
330
1
100
AcDbSymbolTableRecord
100
AcDbBlockTableRecord
  2
*D7
 70
    0
280
    1
281
    0
  0
BLOCK_RECORD
  5
60
330
1
100
AcDbSymbolTableRecord
100
AcDbBlockTableRecord
  2
*D2
 70
    0
280
    1
281
    0
  0
BLOCK_RECORD
  5
63
330
1
100
AcDbSymbolTableRecord
100
AcDbBlockTableRecord
  2
*D3
 70
    0
280
    1
281
    0
  0
BLOCK_RECORD
  5
66
330
1
100
AcDbSymbolTableRecord
100
AcDbBlockTableRecord
  2
*D1
 70
    0
280
    1
281
    0
  0
BLOCK_RECORD
  5
69
330
1
100
AcDbSymbolTableRecord
100
AcDbBlockTableRecord
  2
*D5
 70
    0
280
    1
281
    0
  0
BLOCK_RECORD
  5
6C
330
1
100
AcDbSymbolTableRecord
100
AcDbBlockTableRecord
  2
*D9
 70
    0
280
    1
281
    0
  0
BLOCK_RECORD
  5
6F
330
1
100
AcDbSymbolTableRecord
100
AcDbBlockTableRecord
  2
*D4
 70
    0
280
    1
281
    0
  0
BLOCK_RECORD
  5
72
330
1
100
AcDbSymbolTableRecord
100
AcDbBlockTableRecord
  2
SockektE14
 70
    0
280
    1
281
    0
  0
BLOCK_RECORD
  5
75
330
1
100
AcDbSymbolTableRecord
100
AcDbBlockTableRecord
  2
Socket E27
 70
    0
280
    1
281
    0
  0
ENDTAB
  0
ENDSEC
  0
SECTION
  2
BLOCKS
  0
BLOCK
  5
20
330
1F
100
AcDbEntity
  8
0
100
AcDbBlockBegin
  2
*Model_Space
 70
    0
 10
0
 20
0
 30
0
  3
*Model_Space
  1

  0
ENDBLK
  5
21
330
1F
100
AcDbEntity
  8
0
100
AcDbBlockEnd
  0
BLOCK
  5
1C
330
1B
100
AcDbEntity
  8
0
100
AcDbBlockBegin
  2
*Paper_Space
 70
    0
 10
0
 20
0
 30
0
  3
*Paper_Space
  1

  0
ENDBLK
  5
1D
330
1F
100
AcDbEntity
  8
0
100
AcDbBlockEnd
  0
BLOCK
  5
58
330
57
100
AcDbEntity
  8
0
100
AcDbBlockBegin
  2
*D6
 70
    1
 10
0
 20
0
  3
*D6
  1

  0
LINE
  5
78
100
AcDbEntity
  8
dimensions
  6
ByBlock
 62
    0
370
   -2
100
AcDbLine
 10
31.59591934702932
 20
-7.105427357601002e-15
 11
31.59591934702932
 21
34.39999999999999
  0
SOLID
  5
79
100
AcDbEntity
  8
dimensions
  6
ByBlock
 62
    0
370
   -2
100
AcDbTrace
 10
31.59591934702932
 20
-7.105427357601002e-15
 30
0
 11
31.17963468925648
 21
2.499999999999993
 31
0
 12
32.01220400480216
 22
2.499999999999993
 32
0
 13
32.01220400480216
 23
2.499999999999993
 33
0
  0
SOLID
  5
7A
100
AcDbEntity
  8
dimensions
  6
ByBlock
 62
    0
370
   -2
100
AcDbTrace
 10
31.59591934702932
 20
34.39999999999999
 30
0
 11
32.01220400480216
 21
31.89999999999999
 31
0
 12
31.17963468925648
 22
31.89999999999999
 32
0
 13
31.17963468925648
 23
31.89999999999999
 33
0
  0
MTEXT
  5
7B
100
AcDbEntity
  8
dimensions
  6
CONTINUOUS
 62
    0
370
   -2
100
AcDbMText
 10
29.72091934702932
 20
17.19999999999999
 30
0
 40
2.5
 41
6.527777777777933
 71
    5
 72
    1
  1
34,4
  7
STANDARD
210
0
220
0
230
1
 50
90
 73
    2
 44
1
  0
LINE
  5
7C
100
AcDbEntity
  8
dimensions
  6
ByBlock
 62
    0
370
   -2
100
AcDbLine
 10
-14.075
 20
0
 11
32.84591934702932
 21
-7.105427357601002e-15
  0
LINE
  5
7D
100
AcDbEntity
  8
dimensions
  6
ByBlock
 62
    0
370
   -2
100
AcDbLine
 10
-12.575
 20
34.39999999999999
 11
32.84591934702932
 21
34.39999999999999
  0
ENDBLK
  5
59
330
57
100
AcDbEntity
  8
0
100
AcDbBlockEnd
  0
BLOCK
  5
5B
330
5A
100
AcDbEntity
  8
0
100
AcDbBlockBegin
  2
*D8
 70
    1
 10
0
 20
0
  3
*D8
  1

  0
LINE
  5
7E
100
AcDbEntity
  8
dimensions
  6
ByBlock
 62
    0
370
   -2
100
AcDbLine
 10
-14.5
 20
-21.17620372769416
 11
14.50000000000003
 21
-21.17620372769416
  0
SOLID
  5
7F
100
AcDbEntity
  8
dimensions
  6
ByBlock
 62
    0
370
   -2
100
AcDbTrace
 10
-14.5
 20
-21.17620372769416
 30
0
 11
-12
 21
-20.75991906992132
 31
0
 12
-12
 22
-21.592488385467
 32
0
 13
-12
 23
-21.592488385467
 33
0
  0
SOLID
  5
80
100
AcDbEntity
  8
dimensions
  6
ByBlock
 62
    0
370
   -2
100
AcDbTrace
 10
14.50000000000003
 20
-21.17620372769416
 30
0
 11
12.00000000000003
 21
-21.592488385467
 31
0
 12
12.00000000000003
 22
-20.75991906992132
 32
0
 13
12.00000000000003
 23
-20.75991906992132
 33
0
  0
MTEXT
  5
81
100
AcDbEntity
  8
dimensions
  6
CONTINUOUS
 62
    0
370
   -2
100
AcDbMText
 10
1.343748693292194e-14
 20
-19.30120372769416
 30
0
 40
2.5
 41
3.055555555555556
 71
    5
 72
    1
  1
29
  7
STANDARD
210
0
220
0
230
1
 50
0
 73
    2
 44
1
  0
LINE
  5
82
100
AcDbEntity
  8
dimensions
  6
ByBlock
 62
    0
370
   -2
100
AcDbLine
 10
-14.5
 20
-0.625
 11
-14.5
 21
-22.42620372769416
  0
LINE
  5
83
100
AcDbEntity
  8
dimensions
  6
ByBlock
 62
    0
370
   -2
100
AcDbLine
 10
14.50000000000003
 20
-0.6250000000000051
 11
14.50000000000003
 21
-22.42620372769416
  0
ENDBLK
  5
5C
330
5A
100
AcDbEntity
  8
0
100
AcDbBlockEnd
  0
BLOCK
  5
5E
330
5D
100
AcDbEntity
  8
0
100
AcDbBlockBegin
  2
*D7
 70
    1
 10
0
 20
0
  3
*D7
  1

  0
LINE
  5
84
100
AcDbEntity
  8
dimensions
  6
ByBlock
 62
    0
370
   -2
100
AcDbLine
 10
39.8639485582831
 20
45.00000000000001
 11
39.8639485582831
 21
-6.928147532982225e-15
  0
SOLID
  5
85
100
AcDbEntity
  8
dimensions
  6
ByBlock
 62
    0
370
   -2
100
AcDbTrace
 10
39.8639485582831
 20
45.00000000000001
 30
0
 11
40.28023321605594
 21
42.50000000000001
 31
0
 12
39.44766390051026
 22
42.50000000000001
 32
0
 13
39.44766390051026
 23
42.50000000000001
 33
0
  0
SOLID
  5
86
100
AcDbEntity
  8
dimensions
  6
ByBlock
 62
    0
370
   -2
100
AcDbTrace
 10
39.8639485582831
 20
-6.928147532982225e-15
 30
0
 11
39.44766390051026
 21
2.499999999999993
 31
0
 12
40.28023321605594
 22
2.499999999999993
 32
0
 13
40.28023321605594
 23
2.499999999999993
 33
0
  0
MTEXT
  5
87
100
AcDbEntity
  8
dimensions
  6
CONTINUOUS
 62
    0
370
   -2
100
AcDbMText
 10
37.9889485582831
 20
22.5
 30
0
 40
2.5
 41
3.333333333333488
 71
    5
 72
    1
  1
45
  7
STANDARD
210
0
220
0
230
1
 50
90
 73
    2
 44
1
  0
LINE
  5
88
100
AcDbEntity
  8
dimensions
  6
ByBlock
 62
    0
370
   -2
100
AcDbLine
 10
-13.24999999999989
 20
45
 11
41.1139485582831
 21
45.00000000000001
  0
LINE
  5
89
100
AcDbEntity
  8
dimensions
  6
ByBlock
 62
    0
370
   -2
100
AcDbLine
 10
15.12500000000003
 20
-5.125930593154135e-15
 11
41.1139485582831
 21
-6.928147532982225e-15
  0
ENDBLK
  5
5F
330
5D
100
AcDbEntity
  8
0
100
AcDbBlockEnd
  0
BLOCK
  5
61
330
60
100
AcDbEntity
  8
0
100
AcDbBlockBegin
  2
*D2
 70
    1
 10
0
 20
0
  3
*D2
  1

  0
LINE
  5
8A
100
AcDbEntity
  8
socket E27
  6
ByBlock
 62
    0
370
   -2
100
AcDbLine
 10
-15
 20
-10.1826283431553
 11
15
 21
-10.1826283431553
  0
SOLID
  5
8B
100
AcDbEntity
  8
socket E27
  6
ByBlock
 62
    0
370
   -2
100
AcDbTrace
 10
-15
 20
-10.1826283431553
 30
0
 11
-12.5
 21
-9.766343685382461
 31
0
 12
-12.5
 22
-10.59891300092814
 32
0
 13
-12.5
 23
-10.59891300092814
 33
0
  0
SOLID
  5
8C
100
AcDbEntity
  8
socket E27
  6
ByBlock
 62
    0
370
   -2
100
AcDbTrace
 10
15
 20
-10.1826283431553
 30
0
 11
12.5
 21
-10.59891300092814
 31
0
 12
12.5
 22
-9.766343685382461
 32
0
 13
12.5
 23
-9.766343685382461
 33
0
  0
MTEXT
  5
8D
100
AcDbEntity
  8
socket E27
  6
CONTINUOUS
 62
    0
370
   -2
100
AcDbMText
 10
1.148106374200644e-16
 20
-8.307628343155304
 30
0
 40
2.5
 41
3.055555555555711
 71
    5
 72
    1
  1
30
  7
STANDARD
210
0
220
0
230
1
 50
0
 73
    2
 44
1
  0
LINE
  5
8E
100
AcDbEntity
  8
socket E27
  6
ByBlock
 62
    0
370
   -2
100
AcDbLine
 10
-15
 20
-0.625
 11
-15
 21
-11.4326283431553
  0
LINE
  5
8F
100
AcDbEntity
  8
socket E27
  6
ByBlock
 62
    0
370
   -2
100
AcDbLine
 10
15
 20
-0.625
 11
15
 21
-11.4326283431553
  0
ENDBLK
  5
62
330
60
100
AcDbEntity
  8
0
100
AcDbBlockEnd
  0
BLOCK
  5
64
330
63
100
AcDbEntity
  8
0
100
AcDbBlockBegin
  2
*D3
 70
    1
 10
0
 20
0
  3
*D3
  1

  0
LINE
  5
90
100
AcDbEntity
  8
socket E27
  6
ByBlock
 62
    0
370
   -2
100
AcDbLine
 10
26.96082277221802
 20
43
 11
26.96082277221802
 21
-8.498675734513498e-16
  0
SOLID
  5
91
100
AcDbEntity
  8
socket E27
  6
ByBlock
 62
    0
370
   -2
100
AcDbTrace
 10
26.96082277221802
 20
43
 30
0
 11
27.37710742999086
 21
40.5
 31
0
 12
26.54453811444518
 22
40.5
 32
0
 13
26.54453811444518
 23
40.5
 33
0
  0
SOLID
  5
92
100
AcDbEntity
  8
socket E27
  6
ByBlock
 62
    0
370
   -2
100
AcDbTrace
 10
26.96082277221802
 20
-8.498675734513498e-16
 30
0
 11
26.54453811444518
 21
2.499999999999999
 31
0
 12
27.37710742999086
 22
2.499999999999999
 32
0
 13
27.37710742999086
 23
2.499999999999999
 33
0
  0
MTEXT
  5
93
100
AcDbEntity
  8
socket E27
  6
CONTINUOUS
 62
    0
370
   -2
100
AcDbMText
 10
25.08582277221802
 20
21.5
 30
0
 40
2.5
 41
3.333333333333488
 71
    5
 72
    1
  1
43
  7
STANDARD
210
0
220
0
230
1
 50
90
 73
    2
 44
1
  0
LINE
  5
94
100
AcDbEntity
  8
socket E27
  6
ByBlock
 62
    0
370
   -2
100
AcDbLine
 10
15.625
 20
43
 11
28.21082277221802
 21
43
  0
LINE
  5
95
100
AcDbEntity
  8
socket E27
  6
ByBlock
 62
    0
370
   -2
100
AcDbLine
 10
15.625
 20
0
 11
28.21082277221802
 21
-8.498675734513498e-16
  0
ENDBLK
  5
65
330
63
100
AcDbEntity
  8
0
100
AcDbBlockEnd
  0
BLOCK
  5
67
330
66
100
AcDbEntity
  8
0
100
AcDbBlockBegin
  2
*D1
 70
    1
 10
0
 20
0
  3
*D1
  1

  0
LINE
  5
96
100
AcDbEntity
  8
socket E14
  6
ByBlock
 62
    0
370
   -2
100
AcDbLine
 10
-11.75
 20
-11.78249090622633
 11
11.62314675847748
 21
-11.78249090622633
  0
SOLID
  5
97
100
AcDbEntity
  8
socket E14
  6
ByBlock
 62
    0
370
   -2
100
AcDbTrace
 10
-11.75
 20
-11.78249090622633
 30
0
 11
-9.250000000000002
 21
-11.36620624845349
 31
0
 12
-9.250000000000002
 22
-12.19877556399917
 32
0
 13
-9.250000000000002
 23
-12.19877556399917
 33
0
  0
SOLID
  5
98
100
AcDbEntity
  8
socket E14
  6
ByBlock
 62
    0
370
   -2
100
AcDbTrace
 10
11.62314675847748
 20
-11.78249090622633
 30
0
 11
9.12314675847748
 21
-12.19877556399917
 31
0
 12
9.12314675847748
 22
-11.36620624845349
 32
0
 13
9.12314675847748
 23
-11.36620624845349
 33
0
  0
MTEXT
  5
99
100
AcDbEntity
  8
socket E14
  6
CONTINUOUS
 62
    0
370
   -2
100
AcDbMText
 10
-0.06342662076125716
 20
-9.907490906226327
 30
0
 40
2.5
 41
7.916666666666978
 71
    5
 72
    1
  1
23,37
  7
STANDARD
210
0
220
0
230
1
 50
0
 73
    2
 44
1
  0
LINE
  5
9A
100
AcDbEntity
  8
socket E14
  6
ByBlock
 62
    0
370
   -2
100
AcDbLine
 10
-11.75
 20
-0.625
 11
-11.75
 21
-13.03249090622633
  0
LINE
  5
9B
100
AcDbEntity
  8
socket E14
  6
ByBlock
 62
    0
370
   -2
100
AcDbLine
 10
11.62314675847748
 20
-1.90026688572637
 11
11.62314675847748
 21
-13.03249090622633
  0
ENDBLK
  5
68
330
66
100
AcDbEntity
  8
0
100
AcDbBlockEnd
  0
BLOCK
  5
6A
330
69
100
AcDbEntity
  8
0
100
AcDbBlockBegin
  2
*D5
 70
    1
 10
0
 20
0
  3
*D5
  1

  0
LINE
  5
9C
100
AcDbEntity
  8
dimensions
  6
ByBlock
 62
    0
370
   -2
100
AcDbLine
 10
24.20766313461106
 20
-7.105427357601002e-15
 11
24.20766313461106
 21
33.2
  0
SOLID
  5
9D
100
AcDbEntity
  8
dimensions
  6
ByBlock
 62
    0
370
   -2
100
AcDbTrace
 10
24.20766313461106
 20
-7.105427357601002e-15
 30
0
 11
23.79137847683822
 21
2.499999999999993
 31
0
 12
24.6239477923839
 22
2.499999999999993
 32
0
 13
24.6239477923839
 23
2.499999999999993
 33
0
  0
SOLID
  5
9E
100
AcDbEntity
  8
dimensions
  6
ByBlock
 62
    0
370
   -2
100
AcDbTrace
 10
24.20766313461106
 20
33.2
 30
0
 11
24.62394779238391
 21
30.7
 31
0
 12
23.79137847683822
 22
30.7
 32
0
 13
23.79137847683822
 23
30.7
 33
0
  0
MTEXT
  5
9F
100
AcDbEntity
  8
dimensions
  6
CONTINUOUS
 62
    0
370
   -2
100
AcDbMText
 10
22.33266313461106
 20
16.6
 30
0
 40
2.5
 41
5.972222222222532
 71
    5
 72
    1
  1
33,2
  7
STANDARD
210
0
220
0
230
1
 50
90
 73
    2
 44
1
  0
LINE
  5
A0
100
AcDbEntity
  8
dimensions
  6
ByBlock
 62
    0
370
   -2
100
AcDbLine
 10
-13.875
 20
0
 11
25.45766313461106
 21
-7.105427357601002e-15
  0
LINE
  5
A1
100
AcDbEntity
  8
dimensions
  6
ByBlock
 62
    0
370
   -2
100
AcDbLine
 10
-14.075
 20
33.2
 11
25.45766313461106
 21
33.2
  0
ENDBLK
  5
6B
330
69
100
AcDbEntity
  8
0
100
AcDbBlockEnd
  0
BLOCK
  5
6D
330
6C
100
AcDbEntity
  8
0
100
AcDbBlockBegin
  2
*D9
 70
    1
 10
0
 20
0
  3
*D9
  1

  0
LINE
  5
A2
100
AcDbEntity
  8
dimensions
  6
ByBlock
 62
    0
370
   -2
100
AcDbLine
 10
35.61925241969027
 20
36.99999999999999
 11
35.61925241969027
 21
-1.500613139149482e-15
  0
SOLID
  5
A3
100
AcDbEntity
  8
dimensions
  6
ByBlock
 62
    0
370
   -2
100
AcDbTrace
 10
35.61925241969027
 20
36.99999999999999
 30
0
 11
36.03553707746311
 21
34.49999999999999
 31
0
 12
35.20296776191743
 22
34.49999999999999
 32
0
 13
35.20296776191743
 23
34.49999999999999
 33
0
  0
SOLID
  5
A4
100
AcDbEntity
  8
dimensions
  6
ByBlock
 62
    0
370
   -2
100
AcDbTrace
 10
35.61925241969027
 20
-1.500613139149482e-15
 30
0
 11
35.20296776191743
 21
2.499999999999999
 31
0
 12
36.03553707746311
 22
2.499999999999999
 32
0
 13
36.03553707746311
 23
2.499999999999999
 33
0
  0
MTEXT
  5
A5
100
AcDbEntity
  8
dimensions
  6
CONTINUOUS
 62
    0
370
   -2
100
AcDbMText
 10
33.74425241969027
 20
18.5
 30
0
 40
2.5
 41
3.055555555555711
 71
    5
 72
    1
  1
37
  7
STANDARD
210
0
220
0
230
1
 50
90
 73
    2
 44
1
  0
LINE
  5
A6
100
AcDbEntity
  8
dimensions
  6
ByBlock
 62
    0
370
   -2
100
AcDbLine
 10
-12.12873134328358
 20
37
 11
36.86925241969027
 21
36.99999999999999
  0
LINE
  5
A7
100
AcDbEntity
  8
dimensions
  6
ByBlock
 62
    0
370
   -2
100
AcDbLine
 10
15.12500000000003
 20
0
 11
36.86925241969027
 21
-1.500613139149482e-15
  0
ENDBLK
  5
6E
330
6C
100
AcDbEntity
  8
0
100
AcDbBlockEnd
  0
BLOCK
  5
70
330
6F
100
AcDbEntity
  8
0
100
AcDbBlockBegin
  2
*D4
 70
    1
 10
0
 20
0
  3
*D4
  1

  0
LINE
  5
A8
100
AcDbEntity
  8
socket E14
  6
ByBlock
 62
    0
370
   -2
100
AcDbLine
 10
21.17523848633433
 20
-7.105427357601002e-15
 11
21.17523848633433
 21
41.5
  0
SOLID
  5
A9
100
AcDbEntity
  8
socket E14
  6
ByBlock
 62
    0
370
   -2
100
AcDbTrace
 10
21.17523848633433
 20
-7.105427357601002e-15
 30
0
 11
20.75895382856148
 21
2.499999999999993
 31
0
 12
21.59152314410717
 22
2.499999999999993
 32
0
 13
21.59152314410717
 23
2.499999999999993
 33
0
  0
SOLID
  5
AA
100
AcDbEntity
  8
socket E14
  6
ByBlock
 62
    0
370
   -2
100
AcDbTrace
 10
21.17523848633433
 20
41.5
 30
0
 11
21.59152314410717
 21
39
 31
0
 12
20.75895382856149
 22
39
 32
0
 13
20.75895382856149
 23
39
 33
0
  0
MTEXT
  5
AB
100
AcDbEntity
  8
socket E14
  6
CONTINUOUS
 62
    0
370
   -2
100
AcDbMText
 10
19.30023848633432
 20
20.75
 30
0
 40
2.5
 41
5.694444444444599
 71
    5
 72
    1
  1
41,5
  7
STANDARD
210
0
220
0
230
1
 50
90
 73
    2
 44
1
  0
LINE
  5
AC
100
AcDbEntity
  8
socket E14
  6
ByBlock
 62
    0
370
   -2
100
AcDbLine
 10
12.375
 20
-7.081923622059974e-16
 11
22.42523848633433
 21
-8.521812082012996e-15
  0
LINE
  5
AD
100
AcDbEntity
  8
socket E14
  6
ByBlock
 62
    0
370
   -2
100
AcDbLine
 10
12.375
 20
41.5
 11
22.42523848633433
 21
41.5
  0
ENDBLK
  5
71
330
6F
100
AcDbEntity
  8
0
100
AcDbBlockEnd
  0
BLOCK
  5
73
330
72
100
AcDbEntity
  8
0
100
AcDbBlockBegin
  2
SockektE14
 70
    0
 10
0
 20
0
  3
SockektE14
  1

  0
LINE
  5
AE
100
AcDbEntity
  8
socket E14
  6
ByLayer
 62
  256
370
   -1
100
AcDbLine
 10
-11.75
 20
0
 11
-11.75
 21
41.5
  0
LINE
  5
AF
100
AcDbEntity
  8
socket E14
  6
ByLayer
 62
  256
370
   -1
100
AcDbLine
 10
-11.75
 20
41.5
 11
11.75
 21
41.5
  0
LINE
  5
B0
100
AcDbEntity
  8
socket E14
  6
ByLayer
 62
  256
370
   -1
100
AcDbLine
 10
11.75
 20
41.5
 11
11.75
 21
0
  0
LINE
  5
B1
100
AcDbEntity
  8
socket E14
  6
ByLayer
 62
  256
370
   -1
100
AcDbLine
 10
11.75
 20
0
 11
-11.75
 21
0
  0
ENDBLK
  5
74
330
72
100
AcDbEntity
  8
0
100
AcDbBlockEnd
  0
BLOCK
  5
76
330
75
100
AcDbEntity
  8
0
100
AcDbBlockBegin
  2
Socket E27
 70
    0
 10
0
 20
0
  3
Socket E27
  1

  0
LINE
  5
B2
100
AcDbEntity
  8
socket E27a
  6
ByLayer
 62
  256
370
   -1
100
AcDbLine
 10
-19.5
 20
-9
 11
-19.5
 21
-7.5
  0
LINE
  5
B3
100
AcDbEntity
  8
socket E27a
  6
ByLayer
 62
  256
370
   -1
100
AcDbLine
 10
-19.5
 20
-7.5
 11
-18.5
 21
-7.5
  0
LINE
  5
B4
100
AcDbEntity
  8
socket E27a
  6
ByLayer
 62
  256
370
   -1
100
AcDbLine
 10
-18.5
 20
-7.5
 11
-18.5
 21
0
  0
LINE
  5
B5
100
AcDbEntity
  8
socket E27a
  6
ByLayer
 62
  256
370
   -1
100
AcDbLine
 10
-18.5
 20
0
 11
-14.5
 21
0
  0
LINE
  5
B6
100
AcDbEntity
  8
socket E27a
  6
ByLayer
 62
  256
370
   -1
100
AcDbLine
 10
-14.5
 20
0
 11
-14.5
 21
33
  0
LINE
  5
B7
100
AcDbEntity
  8
socket E27a
  6
ByLayer
 62
  256
370
   -1
100
AcDbLine
 10
-19.5
 20
-9
 11
19.50000000000003
 21
-9
  0
LINE
  5
B8
100
AcDbEntity
  8
socket E27a
  6
ByLayer
 62
  256
370
   -1
100
AcDbLine
 10
19.50000000000003
 20
-9
 11
19.50000000000003
 21
-7.5
  0
LINE
  5
B9
100
AcDbEntity
  8
socket E27a
  6
ByLayer
 62
  256
370
   -1
100
AcDbLine
 10
19.50000000000003
 20
-7.5
 11
18.50000000000003
 21
-7.5
  0
LINE
  5
BA
100
AcDbEntity
  8
socket E27a
  6
ByLayer
 62
  256
370
   -1
100
AcDbLine
 10
18.50000000000003
 20
-7.5
 11
18.50000000000003
 21
0
  0
LINE
  5
BB
100
AcDbEntity
  8
socket E27a
  6
ByLayer
 62
  256
370
   -1
100
AcDbLine
 10
18.50000000000003
 20
0
 11
14.50000000000003
 21
0
  0
LINE
  5
BC
100
AcDbEntity
  8
socket E27a
  6
ByLayer
 62
  256
370
   -1
100
AcDbLine
 10
14.50000000000003
 20
0
 11
14.50000000000003
 21
33
  0
LINE
  5
BD
100
AcDbEntity
  8
socket E27a
  6
ByLayer
 62
  256
370
   -1
100
AcDbLine
 10
14.50000000000003
 20
33
 11
7
 21
33
  0
LINE
  5
BE
100
AcDbEntity
  8
socket E27a
  6
ByLayer
 62
  256
370
   -1
100
AcDbLine
 10
-7
 20
33
 11
-14.5
 21
33
  0
LINE
  5
BF
100
AcDbEntity
  8
socket E27a
  6
ByLayer
 62
  256
370
   -1
100
AcDbLine
 10
-7
 20
33
 11
-7
 21
35.5
  0
LINE
  5
C0
100
AcDbEntity
  8
socket E27a
  6
ByLayer
 62
  256
370
   -1
100
AcDbLine
 10
7
 20
33
 11
7
 21
35.5
  0
LINE
  5
C1
100
AcDbEntity
  8
socket E27a
  6
ByLayer
 62
  256
370
   -1
100
AcDbLine
 10
7
 20
35.5
 11
4.200000000000003
 21
35.5
  0
LINE
  5
C2
100
AcDbEntity
  8
socket E27a
  6
ByLayer
 62
  256
370
   -1
100
AcDbLine
 10
4.200000000000003
 20
35.5
 11
4.200000000000003
 21
33
  0
LINE
  5
C3
100
AcDbEntity
  8
socket E27a
  6
ByLayer
 62
  256
370
   -1
100
AcDbLine
 10
4.200000000000003
 20
33
 11
-4.200000000000003
 21
33
  0
LINE
  5
C4
100
AcDbEntity
  8
socket E27a
  6
ByLayer
 62
  256
370
   -1
100
AcDbLine
 10
-4.200000000000003
 20
33
 11
-4.200000000000003
 21
35.5
  0
LINE
  5
C5
100
AcDbEntity
  8
socket E27a
  6
ByLayer
 62
  256
370
   -1
100
AcDbLine
 10
-4.200000000000003
 20
35.5
 11
-7
 21
35.5
  0
ENDBLK
  5
77
330
75
100
AcDbEntity
  8
0
100
AcDbBlockEnd
  0
ENDSEC
  0
SECTION
  2
ENTITIES
  0
LINE
  5
C6
100
AcDbEntity
  8
Guides
  6
ByLayer
 62
  256
370
   -1
100
AcDbLine
 10
-4.592425496802574e-15
 20
-75
 11
4.592425496802574e-15
 21
75
  0
LINE
  5
C7
100
AcDbEntity
  8
Guides
  6
ByLayer
 62
  256
370
   -1
100
AcDbLine
 10
-75
 20
0
 11
75
 21
0
  0
LINE
  5
C8
100
AcDbEntity
  8
Guides
  6
ByLayer
 62
  256
370
   -1
100
AcDbLine
 10
-75
 20
45
 11
75
 21
45
  0
LINE
  5
C9
100
AcDbEntity
  8
Guides
  6
ByLayer
 62
  256
370
   -1
100
AcDbLine
 10
-4.000000000000004
 20
-75
 11
-3.999999999999996
 21
75
  0
LINE
  5
CA
100
AcDbEntity
  8
More Guides
  6
ByLayer
 62
  256
370
   -1
100
AcDbLine
 10
-91.25
 20
2.5
 11
58.75
 21
2.5
  0
LINE
  5
CB
100
AcDbEntity
  8
More Guides
  6
ByLayer
 62
  256
370
   -1
100
AcDbLine
 10
-91.25
 20
25
 11
58.75
 21
25
  0
LINE
  5
CC
100
AcDbEntity
  8
Still More Guides
  6
ByLayer
 62
  256
370
   -1
100
AcDbLine
 10
-75
 20
90
 11
75
 21
90
  0
LINE
  5
CD
100
AcDbEntity
  8
Still More Guides
  6
ByLayer
 62
  256
370
   -1
100
AcDbLine
 10
-75
 20
100
 11
75
 21
100
  0
LINE
  5
CE
100
AcDbEntity
  8
Still More Guides
  6
ByLayer
 62
  256
370
   -1
100
AcDbLine
 10
-16.25000000000001
 20
50
 11
-8.296407337558682
 21
90.06034960840611
  0
LINE
  5
CF
100
AcDbEntity
  8
Still More Guides
  6
ByLayer
 62
  256
370
   -1
100
AcDbLine
 10
138.8318504740101
 20
60.84946544971368
 11
-155.4246651491275
 21
119.2712337670986
  0
LINE
  5
D0
100
AcDbEntity
  8
Still More Guides
  6
ByLayer
 62
  256
370
   -1
100
AcDbLine
 10
130.8782578115688
 20
20.78911584130757
 11
-163.3782578115688
 21
79.21088415869244
  0
LINE
  5
D1
100
AcDbEntity
  8
Still More Guides
  6
ByLayer
 62
  256
370
   -1
100
AcDbLine
 10
-6.441449479228755
 20
48.05260772275383
 11
1.51214318321257
 21
88.11295733115995
  0
LINE
  5
D2
100
AcDbEntity
  8
Still More Guides
  6
ByLayer
 62
  256
370
   -1
100
AcDbLine
 10
-26.05855052077126
 20
51.94739227724616
 11
-18.10495785832993
 21
92.00774188565228
  0
LINE
  5
D3
100
AcDbEntity
  8
Still More Guides
  6
ByLayer
 62
  256
370
   -1
100
AcDbLine
 10
-18.10495785832984
 20
92.00774188565227
 11
-6.441449479228766
 21
48.05260772275384
  0
LINE
  5
D4
100
AcDbEntity
  8
Still More Guides
  6
ByLayer
 62
  256
370
   -1
100
AcDbLine
 10
-26.05855052077121
 20
51.94739227724615
 11
1.51214318321257
 21
88.11295733115995
  0
LINE
  5
D5
100
AcDbEntity
  8
Still More Guides
  6
ByLayer
 62
  256
370
   -1
100
AcDbLine
 10
134.8550541427894
 20
40.81929064551071
 11
-159.4014614803481
 21
99.24105896289558
  0
LINE
  5
D6
100
AcDbEntity
  8
Still More Guides
  6
ByLayer
 62
  256
370
   -1
100
AcDbLine
 10
-75
 20
110
 11
75
 21
110
  0
LINE
  5
D7
100
AcDbEntity
  8
Guides
  6
ByLayer
 62
  256
370
   -1
100
AcDbLine
 10
-2.000000000000004
 20
-75
 11
-1.999999999999995
 21
75
  0
LINE
  5
D8
100
AcDbEntity
  8
Guides
  6
ByLayer
 62
  256
370
   -1
100
AcDbLine
 10
-79
 20
110
 11
71
 21
110
  0
LINE
  5
D9
100
AcDbEntity
  8
Still More Guides
  6
ByLayer
 62
  256
370
   -1
100
AcDbLine
 10
-1.934197314399676
 20
24.74347308860344
 11
-1.934197314399667
 21
174.7434730886034
  0
LINE
  5
DA
100
AcDbEntity
  8
Still More Guides
  6
ByLayer
 62
  256
370
   -1
100
AcDbLine
 10
-6.213344700307895
 20
90.04385832990708
 11
-5.999999999999995
 21
100
  0
ELLIPSE
  5
DB
100
AcDbEntity
  8
0
  6
ByLayer
 62
  256
370
   -1
100
AcDbEllipse
 10
-17.25
 20
42.74999999999999
 30
0
 11
3.197442310920451e-15
 21
-2.249999999999994
 31
0
 40
0.6293768850239705
 41
3.141592653589793
 42
6.283185307179584
  0
ELLIPSE
  5
DC
100
AcDbEntity
  8
0
  6
ByLayer
 62
  256
370
   -1
100
AcDbEllipse
 10
-17.25
 20
2.25
 30
0
 11
0
 21
2.25
 31
0
 40
0.4000000000000001
 41
3.858022052938281e-07
 42
3.141592653589793
  0
LINE
  5
DD
100
AcDbEntity
  8
0
  6
ByLayer
 62
  256
370
   -1
100
AcDbLine
 10
-17.25
 20
45
 11
-13.87500000000001
 21
45
  0
ELLIPSE
  5
DE
100
AcDbEntity
  8
0
  6
ByLayer
 62
  256
370
   -1
100
AcDbEllipse
 10
-17.25
 20
22.5
 30
0
 11
0
 21
-18
 31
0
 40
0.4697221671971005
 41
3.141592653589793
 42
4.440892098500626e-16
  0
ELLIPSE
  5
DF
100
AcDbEntity
  8
0
  6
ByLayer
 62
  256
370
   -1
100
AcDbEllipse
 10
-10.2958833019014
 20
63.02715732378283
 30
0
 11
3.579116698098602
 21
18.02715732378267
 31
0
 40
0.3169169811069564
 41
0.06146976857257958
 42
3.141592653589797
  0
ELLIPSE
  5
E0
100
AcDbEntity
  8
0
  6
ByLayer
 62
  256
370
   -1
100
AcDbEllipse
 10
-6.568203697605844
 20
85.38301667241477
 30
0
 11
0.1182036976058493
 21
4.616983327585238
 31
0
 40
0.2367697411989751
 41
4.440892098500626e-16
 42
2.770797271280318
  0
LINE
  5
E1
100
AcDbEntity
  8
socket E14
  6
ByLayer
 62
  256
370
   -1
100
AcDbLine
 10
-11.75
 20
0
 11
-11.75
 21
41.5
  0
LINE
  5
E2
100
AcDbEntity
  8
socket E14
  6
ByLayer
 62
  256
370
   -1
100
AcDbLine
 10
-11.75
 20
41.5
 11
11.75
 21
41.5
  0
LINE
  5
E3
100
AcDbEntity
  8
socket E14
  6
ByLayer
 62
  256
370
   -1
100
AcDbLine
 10
11.75
 20
41.5
 11
11.75
 21
0
  0
LINE
  5
E4
100
AcDbEntity
  8
socket E14
  6
ByLayer
 62
  256
370
   -1
100
AcDbLine
 10
11.75
 20
0
 11
-11.75
 21
0
  0
LINE
  5
E5
100
AcDbEntity
  8
socket guides
  6
ByLayer
 62
  256
370
   -1
100
AcDbLine
 10
-4.592425496802574e-15
 20
-75
 11
4.592425496802574e-15
 21
75
  0
LINE
  5
E6
100
AcDbEntity
  8
socket guides
  6
ByLayer
 62
  256
370
   -1
100
AcDbLine
 10
-75
 20
90
 11
75
 21
90
  0
LINE
  5
E7
100
AcDbEntity
  8
0
  6
ByLayer
 62
  256
370
   -1
100
AcDbLine
 10
-6.449999999999995
 20
90
 11
-3.999999999999995
 21
90
  0
LINE
  5
E8
100
AcDbEntity
  8
Guides
  6
ByLayer
 62
  256
370
   -1
100
AcDbLine
 10
-5.57569128306756
 20
5.832341625788686
 11
-5.575691283067552
 21
155.8323416257887
  0
LINE
  5
E9
100
AcDbEntity
  8
Guides
  6
ByLayer
 62
  256
370
   -1
100
AcDbLine
 10
-92.25
 20
4.5
 11
57.75
 21
4.5
  0
LINE
  5
EA
100
AcDbEntity
  8
Guides
  6
ByLayer
 62
  256
370
   -1
100
AcDbLine
 10
-92.25
 20
40.5
 11
57.75
 21
40.5
  0
LINE
  5
EB
100
AcDbEntity
  8
Guides
  6
ByLayer
 62
  256
370
   -1
100
AcDbLine
 10
-92.25
 20
38.5
 11
57.75
 21
38.5
  0
LINE
  5
EC
100
AcDbEntity
  8
Guides
  6
ByLayer
 62
  256
370
   -1
100
AcDbLine
 10
-92.25
 20
6.5
 11
57.75
 21
6.5
  0
LINE
  5
ED
100
AcDbEntity
  8
Guides
  6
ByLayer
 62
  256
370
   -1
100
AcDbLine
 10
-23.70446178508853
 20
6.5
 11
-17.25000015875604
 21
38.5
  0
LINE
  5
EE
100
AcDbEntity
  8
Guides
  6
ByLayer
 62
  256
370
   -1
100
AcDbLine
 10
-95.47723101626721
 20
22.49999978014624
 11
54.52276898373279
 21
22.49999978014624
  0
LINE
  5
EF
100
AcDbEntity
  8
Guides
  6
ByLayer
 62
  256
370
   -1
100
AcDbLine
 10
-75
 20
3
 11
75
 21
3
  0
LINE
  5
F0
100
AcDbEntity
  8
temp
  6
ByLayer
 62
  256
370
   -1
100
AcDbLine
 10
-17.25000015875604
 20
38.5
 11
-15.25000014766981
 21
40.49999998891377
  0
LINE
  5
F1
100
AcDbEntity
  8
temp
  6
ByLayer
 62
  256
370
   -1
100
AcDbLine
 10
-15.25000014766981
 20
40.49999998891377
 11
-15.25000013935514
 21
42
  0
ELLIPSE
  5
F2
100
AcDbEntity
  8
temp
  6
ByLayer
 62
  256
370
   -1
100
AcDbEllipse
 10
-17.2500002474459
 20
22.49999978014624
 30
0
 11
8.868985545973374e-08
 21
16.00000021985376
 31
0
 40
0.4034038405595485
 41
6.283185307179583
 42
3.141827098657176
  0
LINE
  5
F3
100
AcDbEntity
  8
TopGuides
  6
ByLayer
 62
  256
370
   -1
100
AcDbLine
 10
-13.87499999999998
 20
45.00000000000016
 11
-7.07448895063571
 21
81.08994747490155
  0
LINE
  5
F4
100
AcDbEntity
  8
TopGuides
  6
ByLayer
 62
  256
370
   -1
100
AcDbLine
 10
133.5308764845316
 20
17.22397476551009
 11
-161.2808764845315
 21
72.77602523449022
  0
LINE
  5
F5
100
AcDbEntity
  8
TopGuides
  6
ByLayer
 62
  256
370
   -1
100
AcDbLine
 10
140.3313875338959
 20
53.31392224041189
 11
-154.4803654351672
 21
108.865972709392
  0
LINE
  5
F6
100
AcDbEntity
  8
TopGuides
  6
ByLayer
 62
  256
370
   -1
100
AcDbLine
 10
-23.70205843230208
 20
46.85173501563283
 11
-16.90154738293781
 21
82.94168249053422
  0
LINE
  5
F7
100
AcDbEntity
  8
TopGuides
  6
ByLayer
 62
  256
370
   -1
100
AcDbLine
 10
133.9012234876581
 20
19.18938645197051
 11
-160.910529481405
 21
74.74143692095063
  0
LINE
  5
F8
100
AcDbEntity
  8
TopGuides
  6
ByLayer
 62
  256
370
   -1
100
AcDbLine
 10
139.9610405307694
 20
51.34851055395147
 11
-154.8507124382937
 21
106.9005610229316
  0
LINE
  5
F9
100
AcDbEntity
  8
TopGuides
  6
ByLayer
 62
  256
370
   -1
100
AcDbLine
 10
-17.27189438606428
 20
80.9762708040742
 11
-13.5046529968734
 21
46.96541168646057
  0
LINE
  5
FA
100
AcDbEntity
  8
TopGuides
  6
ByLayer
 62
  256
370
   -1
100
AcDbLine
 10
-23.33171142917547
 20
48.81714670209324
 11
-7.444835953762151
 21
79.12453578844153
  0
LINE
  5
FB
100
AcDbEntity
  8
TopGuides
  6
ByLayer
 62
  256
370
   -1
100
AcDbLine
 10
132.0176027930627
 20
36.19481601077727
 11
-162.7941501760004
 21
91.74686647975741
  0
LINE
  5
FC
100
AcDbEntity
  8
TopGuides
  6
ByLayer
 62
  256
370
   -1
100
AcDbLine
 10
-19.42329901422877
 20
46.04547862746782
 11
-12.62278796486451
 21
82.13542610236921
  0
LINE
  5
FD
100
AcDbEntity
  8
TopGuides
  6
ByLayer
 62
  256
370
   -1
100
AcDbLine
 10
-17.45788732776835
 20
45.67513162434128
 11
-10.65737627840409
 21
81.76507909924267
  0
LINE
  5
FE
100
AcDbEntity
  8
Guides
  6
ByLayer
 62
  256
370
   -1
100
AcDbLine
 10
-12.43103289142553
 20
43.77478843332675
 11
-5.981032891425531
 21
90.27478843332676
  0
LINE
  5
FF
100
AcDbEntity
  8
Guides
  6
ByLayer
 62
  256
370
   -1
100
AcDbLine
 10
-75
 20
47
 11
75
 21
47
  0
LINE
  5
100
100
AcDbEntity
  8
Guides
  6
ByLayer
 62
  256
370
   -1
100
AcDbLine
 10
-82.07448895063571
 20
81.08994747490155
 11
67.92551104936429
 21
81.08994747490155
  0
LINE
  5
101
100
AcDbEntity
  8
Guides
  6
ByLayer
 62
  256
370
   -1
100
AcDbLine
 10
-82.07448895063571
 20
79.08994747490155
 11
67.92551104936429
 21
79.08994747490155
  0
LINE
  5
102
100
AcDbEntity
  8
Guides
  6
ByLayer
 62
  256
370
   -1
100
AcDbLine
 10
141.0449882841597
 20
58.48081497539393
 11
-156.1099454296707
 21
99.69907997440917
  0
LINE
  5
103
100
AcDbEntity
  8
Guides
  6
ByLayer
 62
  256
370
   -1
100
AcDbLine
 10
136.5938020215121
 20
26.39086750049238
 11
-160.5611316923183
 21
67.60913249950762
  0
LINE
  5
104
100
AcDbEntity
  8
Guides
  6
ByLayer
 62
  256
370
   -1
100
AcDbLine
 10
-22.33619734855321
 20
45.14873059996059
 11
-15.88619734855321
 21
91.6487305999606
  0
LINE
  5
105
100
AcDbEntity
  8
Guides
  6
ByLayer
 62
  256
370
   -1
100
AcDbLine
 10
-17.43764302988316
 20
80.46388964153539
 11
-11.98366483540311
 21
47
  0
LINE
  5
106
100
AcDbEntity
  8
Guides
  6
ByLayer
 62
  256
370
   -1
100
AcDbLine
 10
-21.88882929253079
 20
48.37394216663384
 11
-7.53247857275548
 21
79.08994747490155
  0
LINE
  5
107
100
AcDbEntity
  8
Guides
  6
ByLayer
 62
  256
370
   -1
100
AcDbLine
 10
138.8193951528359
 20
42.43584123794315
 11
-158.3355385609945
 21
83.6541062369584
  0
LINE
  5
108
100
AcDbEntity
  8
Guides
  6
ByLayer
 62
  256
370
   -1
100
AcDbLine
 10
-75
 20
43
 11
75
 21
43
  0
LINE
  5
109
100
AcDbEntity
  8
Guides
  6
ByLayer
 62
  256
370
   -1
100
AcDbLine
 10
-17.25
 20
-34.5
 11
-17.24999999999999
 21
115.5
  0
DIMENSION
  5
10A
100
AcDbEntity
  8
socket E14
  6
ByLayer
 62
  256
370
   -1
100
AcDbDimension
  2
*D1
 10
11.62314675847748
 20
-11.78249090622633
 30
0
 11
-0.06342662076125716
 21
-9.907490906226327
 31
0
 70
   32
 71
    5
 72
    0
  3
Standard
 53
0
210
0
220
0
230
1
100
AcDbAlignedDimension
 13
-11.75
 23
-0
 33
0
 14
11.62314675847748
 24
-1.27526688572637
 34
0
100
AcDbRotatedDimension
  0
LINE
  5
10B
100
AcDbEntity
  8
socket guides
  6
ByLayer
 62
  256
370
   -1
100
AcDbLine
 10
-15.00000000000001
 20
-75
 11
-14.99999999999999
 21
75
  0
LINE
  5
10C
100
AcDbEntity
  8
socket guides
  6
ByLayer
 62
  256
370
   -1
100
AcDbLine
 10
14.99999999999999
 20
-75
 11
15.00000000000001
 21
75
  0
LINE
  5
10D
100
AcDbEntity
  8
socket E27
  6
ByLayer
 62
  256
370
   -1
100
AcDbLine
 10
-15
 20
-0
 11
-15
 21
43
  0
LINE
  5
10E
100
AcDbEntity
  8
socket E27
  6
ByLayer
 62
  256
370
   -1
100
AcDbLine
 10
-15
 20
43
 11
15
 21
43
  0
LINE
  5
10F
100
AcDbEntity
  8
socket E27
  6
ByLayer
 62
  256
370
   -1
100
AcDbLine
 10
-15
 20
0
 11
15
 21
0
  0
LINE
  5
110
100
AcDbEntity
  8
socket E27
  6
ByLayer
 62
  256
370
   -1
100
AcDbLine
 10
15
 20
43
 11
15
 21
0
  0
DIMENSION
  5
111
100
AcDbEntity
  8
socket E27
  6
ByLayer
 62
  256
370
   -1
100
AcDbDimension
  2
*D2
 10
15
 20
-10.1826283431553
 30
0
 11
1.148106374200644e-16
 21
-8.307628343155304
 31
0
 70
   32
 71
    5
 72
    0
  3
Standard
 53
0
210
0
220
0
230
1
100
AcDbAlignedDimension
 13
-15
 23
0
 33
0
 14
15
 24
0
 34
0
100
AcDbRotatedDimension
  0
DIMENSION
  5
112
100
AcDbEntity
  8
socket E27
  6
ByLayer
 62
  256
370
   -1
100
AcDbDimension
  2
*D3
 10
26.96082277221802
 20
-1.464778332316557e-15
 30
0
 11
25.08582277221802
 21
21.5
 31
0
 70
   32
 71
    5
 72
    0
  3
Standard
 53
0
210
0
220
0
230
1
100
AcDbAlignedDimension
 13
15
 23
43
 33
0
 14
15
 24
0
 34
0
 50
90
100
AcDbRotatedDimension
  0
DIMENSION
  5
113
100
AcDbEntity
  8
socket E14
  6
ByLayer
 62
  256
370
   -1
100
AcDbDimension
  2
*D4
 10
21.17523848633433
 20
42.581900344104
 30
0
 11
19.30023848633432
 21
20.75
 31
0
 70
   32
 71
    5
 72
    0
  3
Standard
 53
0
210
0
220
0
230
1
100
AcDbAlignedDimension
 13
11.75
 23
-0
 33
0
 14
11.75
 24
41.5
 34
0
 50
90
100
AcDbRotatedDimension
  0
LINE
  5
114
100
AcDbEntity
  8
socket guides
  6
ByLayer
 62
  256
370
   -1
100
AcDbLine
 10
100
 20
-75
 11
100
 21
75
  0
LINE
  5
115
100
AcDbEntity
  8
socket guides
  6
ByLayer
 62
  256
370
   -1
100
AcDbLine
 10
25
 20
0
 11
175
 21
0
  0
LINE
  5
116
100
AcDbEntity
  8
socket guides
  6
ByLayer
 62
  256
370
   -1
100
AcDbLine
 10
25
 20
1.5
 11
175
 21
1.5
  0
LINE
  5
117
100
AcDbEntity
  8
socket guides
  6
ByLayer
 62
  256
370
   -1
100
AcDbLine
 10
25
 20
9
 11
175
 21
9
  0
LINE
  5
118
100
AcDbEntity
  8
socket guides
  6
ByLayer
 62
  256
370
   -1
100
AcDbLine
 10
25
 20
42
 11
175
 21
42
  0
LINE
  5
119
100
AcDbEntity
  8
socket guides
  6
ByLayer
 62
  256
370
   -1
100
AcDbLine
 10
25
 20
44.5
 11
175
 21
44.5
  0
LINE
  5
11A
100
AcDbEntity
  8
socket guides
  6
ByLayer
 62
  256
370
   -1
100
AcDbLine
 10
86.5
 20
-75
 11
86.50000000000001
 21
75
  0
LINE
  5
11B
100
AcDbEntity
  8
socket guides
  6
ByLayer
 62
  256
370
   -1
100
AcDbLine
 10
113.5
 20
-75
 11
113.5
 21
75
  0
LINE
  5
11C
100
AcDbEntity
  8
socket guides
  6
ByLayer
 62
  256
370
   -1
100
AcDbLine
 10
85.5
 20
-75
 11
85.50000000000001
 21
75
  0
LINE
  5
11D
100
AcDbEntity
  8
socket guides
  6
ByLayer
 62
  256
370
   -1
100
AcDbLine
 10
114.5
 20
-75
 11
114.5
 21
75
  0
LINE
  5
11E
100
AcDbEntity
  8
socket guides
  6
ByLayer
 62
  256
370
   -1
100
AcDbLine
 10
81.5
 20
-75
 11
81.50000000000001
 21
75
  0
LINE
  5
11F
100
AcDbEntity
  8
socket guides
  6
ByLayer
 62
  256
370
   -1
100
AcDbLine
 10
118.5
 20
-75
 11
118.5
 21
75
  0
LINE
  5
120
100
AcDbEntity
  8
socket guides
  6
ByLayer
 62
  256
370
   -1
100
AcDbLine
 10
80.5
 20
-75
 11
80.50000000000001
 21
75
  0
LINE
  5
121
100
AcDbEntity
  8
socket guides
  6
ByLayer
 62
  256
370
   -1
100
AcDbLine
 10
119.5
 20
-75
 11
119.5
 21
75
  0
LINE
  5
122
100
AcDbEntity
  8
socket guides
  6
ByLayer
 62
  256
370
   -1
100
AcDbLine
 10
93
 20
-75
 11
93.00000000000001
 21
75
  0
LINE
  5
123
100
AcDbEntity
  8
socket guides
  6
ByLayer
 62
  256
370
   -1
100
AcDbLine
 10
107
 20
-75
 11
107
 21
75
  0
LINE
  5
124
100
AcDbEntity
  8
socket guides
  6
ByLayer
 62
  256
370
   -1
100
AcDbLine
 10
95.8
 20
-75
 11
95.80000000000001
 21
75
  0
LINE
  5
125
100
AcDbEntity
  8
socket guides
  6
ByLayer
 62
  256
370
   -1
100
AcDbLine
 10
104.2
 20
-75
 11
104.2
 21
75
  0
INSERT
  5
126
100
AcDbEntity
  8
socket E27a
  6
ByLayer
 62
  256
370
   -1
100
AcDbBlockReference
  2
Socket E27
 10
0
 20
0
 30
0
 41
1
 42
1
 43
0
 50
0
 70
    1
 71
    1
 44
1
 45
1
  0
LINE
  5
127
100
AcDbEntity
  8
Guides
  6
ByLayer
 62
  256
370
   -1
100
AcDbLine
 10
-88.60000000000001
 20
33.59999999999999
 11
61.39999999999999
 21
33.59999999999999
  0
LINE
  5
128
100
AcDbEntity
  8
Guides
  6
ByLayer
 62
  256
370
   -1
100
AcDbLine
 10
-14.7
 20
2.449293598294707e-17
 11
-14.7
 21
33
  0
LINE
  5
129
100
AcDbEntity
  8
Guides
  6
ByLayer
 62
  256
370
   -1
100
AcDbLine
 10
-7
 20
33.2
 11
-14.5
 21
33.2
  0
LINE
  5
12A
100
AcDbEntity
  8
0
  6
ByLayer
 62
  256
370
   -1
100
AcDbLine
 10
-14.7
 20
33.2
 11
-14.4
 21
33.2
  0
LINE
  5
12B
100
AcDbEntity
  8
0
  6
ByLayer
 62
  256
370
   -1
100
AcDbLine
 10
-14.4
 20
33.2
 11
-14.4
 21
33.5
  0
LINE
  5
12C
100
AcDbEntity
  8
0
  6
ByLayer
 62
  256
370
   -1
100
AcDbLine
 10
-14.4
 20
33.5
 11
-14.1
 21
33.5
  0
LINE
  5
12D
100
AcDbEntity
  8
0
  6
ByLayer
 62
  256
370
   -1
100
AcDbLine
 10
-14.1
 20
33.5
 11
-14.1
 21
33.79999999999999
  0
LINE
  5
12E
100
AcDbEntity
  8
0
  6
ByLayer
 62
  256
370
   -1
100
AcDbLine
 10
-14.1
 20
33.79999999999999
 11
-13.8
 21
33.79999999999999
  0
LINE
  5
12F
100
AcDbEntity
  8
0
  6
ByLayer
 62
  256
370
   -1
100
AcDbLine
 10
-13.8
 20
33.79999999999999
 11
-13.8
 21
34.09999999999999
  0
LINE
  5
130
100
AcDbEntity
  8
0
  6
ByLayer
 62
  256
370
   -1
100
AcDbLine
 10
-13.8
 20
34.09999999999999
 11
-13.5
 21
34.09999999999999
  0
LINE
  5
131
100
AcDbEntity
  8
0
  6
ByLayer
 62
  256
370
   -1
100
AcDbLine
 10
-13.5
 20
34.09999999999999
 11
-13.5
 21
34.39999999999999
  0
LINE
  5
132
100
AcDbEntity
  8
0
  6
ByLayer
 62
  256
370
   -1
100
AcDbLine
 10
-13.5
 20
34.39999999999999
 11
-13.2
 21
34.39999999999999
  0
LINE
  5
133
100
AcDbEntity
  8
0
  6
ByLayer
 62
  256
370
   -1
100
AcDbLine
 10
-14.7
 20
33.2
 11
-14.7
 21
0
  0
LINE
  5
134
100
AcDbEntity
  8
0
  6
ByLayer
 62
  256
370
   -1
100
AcDbLine
 10
-14.7
 20
-0
 11
-17.25
 21
0
  0
DIMENSION
  5
135
100
AcDbEntity
  8
dimensions
  6
ByLayer
 62
  256
370
   -1
100
AcDbDimension
  2
*D5
 10
24.20766313461106
 20
33.2
 30
0
 11
22.33266313461106
 21
16.6
 31
0
 70
   32
 71
    5
  3
Standard
 53
0
210
0
220
0
230
1
100
AcDbAlignedDimension
 13
-14.5
 23
0
 33
0
 14
-14.7
 24
33.2
 34
0
 50
90
100
AcDbRotatedDimension
  0
DIMENSION
  5
136
100
AcDbEntity
  8
dimensions
  6
ByLayer
 62
  256
370
   -1
100
AcDbDimension
  2
*D6
 10
31.59591934702932
 20
34.39999999999998
 30
0
 11
29.72091934702932
 21
17.19999999999999
 31
0
 70
   32
 71
    5
  3
Standard
 53
0
210
0
220
0
230
1
100
AcDbAlignedDimension
 13
-14.7
 23
-0
 33
0
 14
-13.2
 24
34.39999999999999
 34
0
 50
90
100
AcDbRotatedDimension
  0
LINE
  5
137
100
AcDbEntity
  8
socket guides
  6
ByLayer
 62
  256
370
   -1
100
AcDbLine
 10
-16.7
 20
34.02842712474619
 11
-14.25
 21
36.47842712474618
  0
LINE
  5
138
100
AcDbEntity
  8
temp
  6
ByLayer
 62
  256
370
   -1
100
AcDbLine
 10
-16.7
 20
34.02842712474619
 11
-14.25
 21
36.47842712474618
  0
LINE
  5
139
100
AcDbEntity
  8
More Guides
  6
ByLayer
 62
  256
370
   -1
100
AcDbLine
 10
-14.55676481198053
 20
34.62450065234209
 11
-5.356764811980527
 21
90.2245006523421
  0
LINE
  5
13A
100
AcDbEntity
  8
More Guides
  6
ByLayer
 62
  256
370
   -1
100
AcDbLine
 10
-17.25
 20
43
 11
-13.87500000000001
 21
43
  0
LINE
  5
13B
100
AcDbEntity
  8
temp
  6
ByLayer
 62
  256
370
   -1
100
AcDbLine
 10
-15.25000013935514
 20
42
 11
-15.25000013935514
 21
43
  0
LINE
  5
13C
100
AcDbEntity
  8
temp
  6
ByLayer
 62
  256
370
   -1
100
AcDbLine
 10
-15.25000013935514
 20
43
 11
-13.1708908192026
 21
43
  0
LINE
  5
13D
100
AcDbEntity
  8
temp
  6
ByLayer
 62
  256
370
   -1
100
AcDbLine
 10
-13.1708908192026
 20
43
 11
-14.25
 21
36.47842712474618
  0
LINE
  5
13E
100
AcDbEntity
  8
temp
  6
ByLayer
 62
  256
370
   -1
100
AcDbLine
 10
-16.7
 20
34.02842712474619
 11
-16.7
 21
5.951097570287851
  0
LINE
  5
13F
100
AcDbEntity
  8
temp
  6
ByLayer
 62
  256
370
   -1
100
AcDbLine
 10
-12.49554595853584
 20
47.07516301888167
 11
-7.207541666303213
 21
79.03787252061279
  0
ELLIPSE
  5
140
100
AcDbEntity
  8
temp
  6
ByLayer
 62
  256
370
   -1
100
AcDbEllipse
 10
-9.85154381241952
 20
63.05651776974724
 30
0
 11
-2.644002146116311
 21
-15.98135475086556
 31
0
 40
0.2688678972402376
 41
3.141592572387142
 42
8.881784197001252e-16
  0
LINE
  5
141
100
AcDbEntity
  8
temp
  6
ByLayer
 62
  256
370
   -1
100
AcDbLine
 10
-17.2484871194795
 20
6.500000000000001
 11
-16.7
 21
5.951097570287851
  0
LINE
  5
142
100
AcDbEntity
  8
0
  6
ByLayer
 62
  256
370
   -1
100
AcDbLine
 10
-17.25000015875604
 20
38.5
 11
-15.25000014766981
 21
40.49999998891377
  0
LINE
  5
143
100
AcDbEntity
  8
0
  6
ByLayer
 62
  256
370
   -1
100
AcDbLine
 10
-15.25000014766981
 20
40.49999998891377
 11
-15.25000013935514
 21
42
  0
ELLIPSE
  5
144
100
AcDbEntity
  8
0
  6
ByLayer
 62
  256
370
   -1
100
AcDbEllipse
 10
-17.2500002474459
 20
22.49999978014624
 30
0
 11
8.868985545973374e-08
 21
16.00000021985376
 31
0
 40
0.4034038405595485
 41
6.283185307179583
 42
3.141827098657176
  0
LINE
  5
145
100
AcDbEntity
  8
0
  6
ByLayer
 62
  256
370
   -1
100
AcDbLine
 10
-16.7
 20
34.02842712474619
 11
-14.25
 21
36.47842712474618
  0
LINE
  5
146
100
AcDbEntity
  8
0
  6
ByLayer
 62
  256
370
   -1
100
AcDbLine
 10
-15.25000013935514
 20
42
 11
-15.25000013935514
 21
43
  0
LINE
  5
147
100
AcDbEntity
  8
0
  6
ByLayer
 62
  256
370
   -1
100
AcDbLine
 10
-15.25000013935514
 20
43
 11
-13.1708908192026
 21
43
  0
LINE
  5
148
100
AcDbEntity
  8
0
  6
ByLayer
 62
  256
370
   -1
100
AcDbLine
 10
-13.1708908192026
 20
43
 11
-14.25
 21
36.47842712474618
  0
LINE
  5
149
100
AcDbEntity
  8
0
  6
ByLayer
 62
  256
370
   -1
100
AcDbLine
 10
-16.7
 20
34.02842712474619
 11
-16.7
 21
5.951097570287851
  0
LINE
  5
14A
100
AcDbEntity
  8
0
  6
ByLayer
 62
  256
370
   -1
100
AcDbLine
 10
-12.49554595853584
 20
47.07516301888167
 11
-7.207541666303213
 21
79.03787252061279
  0
ELLIPSE
  5
14B
100
AcDbEntity
  8
0
  6
ByLayer
 62
  256
370
   -1
100
AcDbEllipse
 10
-9.85154381241952
 20
63.05651776974724
 30
0
 11
-2.644002146116311
 21
-15.98135475086556
 31
0
 40
0.2688678972402376
 41
3.141592572387142
 42
8.881784197001252e-16
  0
LINE
  5
14C
100
AcDbEntity
  8
0
  6
ByLayer
 62
  256
370
   -1
100
AcDbLine
 10
-17.2484871194795
 20
6.500000000000001
 11
-16.7
 21
5.951097570287851
  0
DIMENSION
  5
14D
100
AcDbEntity
  8
dimensions
  6
ByLayer
 62
  256
370
   -1
100
AcDbDimension
  2
*D7
 10
39.8639485582831
 20
-8.232118434718084e-15
 30
0
 11
37.9889485582831
 21
22.5
 31
0
 70
   32
 71
    5
  3
Standard
 53
0
210
0
220
0
230
1
100
AcDbAlignedDimension
 13
-13.87499999999989
 23
45
 33
0
 14
14.50000000000003
 24
-5.125930593154135e-15
 34
0
 50
90
100
AcDbRotatedDimension
  0
DIMENSION
  5
14E
100
AcDbEntity
  8
dimensions
  6
ByLayer
 62
  256
370
   -1
100
AcDbDimension
  2
*D8
 10
14.50000000000003
 20
-21.17620372769416
 30
0
 11
1.343748693292194e-14
 21
-19.30120372769416
 31
0
 70
   32
 71
    5
  3
Standard
 53
0
210
0
220
0
230
1
100
AcDbAlignedDimension
 13
-14.5
 23
0
 33
0
 14
14.50000000000003
 24
-5.125930593154135e-15
 34
0
100
AcDbRotatedDimension
  0
LINE
  5
14F
100
AcDbEntity
  8
More Guides
  6
ByLayer
 62
  256
370
   -1
100
AcDbLine
 10
-79
 20
90
 11
71
 21
90
  0
LINE
  5
150
100
AcDbEntity
  8
More Guides
  6
ByLayer
 62
  256
370
   -1
100
AcDbLine
 10
-3.999999999999997
 20
15
 11
-3.999999999999988
 21
165
  0
LINE
  5
151
100
AcDbEntity
  8
More Guides
  6
ByLayer
 62
  256
370
   -1
100
AcDbLine
 10
-79
 20
88
 11
71
 21
88
  0
LINE
  5
152
100
AcDbEntity
  8
0
  6
ByLayer
 62
  256
370
   -1
100
AcDbLine
 10
-13.2
 20
34.39999999999999
 11
-3.999999999999993
 21
88
  0
LINE
  5
153
100
AcDbEntity
  8
0
  6
ByLayer
 62
  256
370
   -1
100
AcDbLine
 10
-3.999999999999993
 20
90
 11
-3.999999999999993
 21
88
  0
LINE
  5
154
100
AcDbEntity
  8
dimensions
  6
ByLayer
 62
  256
370
   -1
100
AcDbLine
 10
-14.075
 20
37
 11
32.84591934702932
 21
36.99999999999999
  0
DIMENSION
  5
155
100
AcDbEntity
  8
dimensions
  6
ByLayer
 62
  256
370
   -1
100
AcDbDimension
  2
*D9
 10
35.61925241969027
 20
-2.586362487615865e-15
 30
0
 11
33.74425241969027
 21
18.5
 31
0
 70
   32
 71
    5
  3
Standard
 53
0
210
0
220
0
230
1
100
AcDbAlignedDimension
 13
-12.75373134328358
 23
37
 33
0
 14
14.50000000000003
 24
-0
 34
0
 50
90
100
AcDbRotatedDimension
  0
ENDSEC
  0
SECTION
  2
OBJECTS
  0
DICTIONARY
  5
C
330
0
100
AcDbDictionary
281
    1
  3
ACAD_GROUP
350
D
  0
DICTIONARY
  5
D
330
C
100
AcDbDictionary
281
    1
  0
ENDSEC
  0
EOF
